Assignment 2: Data visualization
…
expeditions <- expeditions %>%
  mutate(peak_name = fct_reorder(peak_name, peak_counts$expedition_count[match(peak_name, peak_counts$peak_name)]))

levels(expeditions$peak_name)

##  [1] "Tilicho"         "Putha Hiunchuli" "Annapurna IV"    "Himlung Himal"  
##  [5] "Kangchenjunga"   "Annapurna I"     "Pumori"          "Baruntse"       
##  [9] "Makalu"          "Dhaulagiri I"    "Lhotse"          "Manaslu"        
## [13] "Cho Oyu"         "Ama Dablam"      "Everest"         "Other"

expeditions %>%
  arrange(desc(peak_name))

## # A tibble: 8,069 × 16
##    expedition_id peak_id peak_name  year season basecamp_date highpoint_date
##    <chr>         <chr>   <fct>     <dbl> <chr>  <date>        <date>        
##  1 EVER88401     EVER    Everest    1988 Winter 1988-11-10    1988-12-22    
##  2 EVER88402     EVER    Everest    1988 Winter 1988-12-08    1989-01-10    
##  3 EVER89306     EVER    Everest    1989 Autumn 1989-08-21    1989-10-14    
##  4 EVER89310     EVER    Everest    1989 Autumn 1989-09-01    1989-09-25    
##  5 EVER89305     EVER    Everest    1989 Autumn 1989-08-17    1989-09-25    
##  6 EVER89311     EVER    Everest    1989 Autumn 1989-09-02    1989-09-07    
##  7 EVER89302     EVER    Everest    1989 Autumn 1989-08-13    1989-10-11    
##  8 EVER89304     EVER    Everest    1989 Autumn 1989-08-16    1989-10-03    
##  9 EVER89307     EVER    Everest    1989 Autumn 1989-08-23    1989-10-24    
## 10 EVER89303     EVER    Everest    1989 Autumn 1989-08-15    1989-10-11    
## # ℹ 8,059 more rows
## # ℹ 9 more variables: termination_date <date>, termination_reason <chr>,
## #   highpoint_metres <dbl>, members <dbl>, member_deaths <dbl>,
## #   hired_staff <dbl>, hired_staff_deaths <dbl>, oxygen_used <lgl>,
## #   trekking_agency <chr>
…
